%YAML 1.1
%TAG !u! tag:unity3d.com,2011:
--- !u!114 &11400000
MonoBehaviour:
  m_ObjectHideFlags: 0
  m_CorrespondingSourceObject: {fileID: 0}
  m_PrefabInstance: {fileID: 0}
  m_PrefabAsset: {fileID: 0}
  m_GameObject: {fileID: 0}
  m_Enabled: 1
  m_EditorHideFlags: 0
  m_Script: {fileID: 11500000, guid: 3fec8ef8c43430d4e8231eef729df805, type: 3}
  m_Name: PlanetShape
  m_EditorClassIdentifier: 
  noiseLayers:
  - enabled: 1
    useFirstLayerAsMask: 1
    noiseSettings:
      strength: 0.37
      roughness: 0
      numLayers: 4
      baseRoughness: 2.95
      persistence: 1.08
      centre: {x: 0, y: 0, z: 0}
      minValue: 0.51
  - enabled: 1
    useFirstLayerAsMask: 1
    noiseSettings:
      strength: 1.72
      roughness: 0.18
      numLayers: 3
      baseRoughness: 0.24
      persistence: 0
      centre: {x: 0, y: 0, z: 0}
      minValue: 0
  - enabled: 1
    useFirstLayerAsMask: 1
    noiseSettings:
      strength: 0
      roughness: 0
      numLayers: 0
      baseRoughness: 0
      persistence: 0
      centre: {x: 0, y: 0, z: 0}
      minValue: 0
